<svg width="393" height="74" viewBox="0 0 393 74" fill="none" xmlns="http://www.w3.org/2000/svg">
<path d="M0.185059 13.722H13.675L6.83905 47.882H23.1671L30.0031 13.722H43.42L46.2081 0H2.97208L0.185059 13.722Z" fill="white"/>
<path d="M134.676 0H118.705L102.641 14.585L105.541 0H89.4012L81.2522 40.872L71.4152 0H56.6292L26.0122 47.882H43.7122L48.7922 39.326H64.8282L66.5842 47.882H95.9932L98.3092 36.267L101.863 33.054L111.308 47.882H164.208L167.017 34.412H143.969L144.788 30.206H164.353L166.923 17.049H147.417L148.112 13.472H170.238L172.959 0.000999451H134.676V0ZM56.5232 26.296L60.6972 19.201L62.1622 26.296H56.5232ZM126.237 42.343L113.957 22.532L133.717 4.802L126.237 42.343Z" fill="white"/>
<path d="M220.642 16.763C220.642 25.335 214.553 30.363 204.386 30.363H191.561V44.547H190.379V3.16699H204.389C214.553 3.16699 220.642 8.192 220.642 16.763ZM219.46 16.763C219.46 8.842 214.199 4.28999 204.504 4.28999H191.561V29.236H204.506C214.199 29.236 219.461 24.685 219.461 16.763H219.46Z" fill="white"/>
<path d="M259.358 44.547L248.836 29.947C247.237 30.2417 245.614 30.3803 243.989 30.361H231.161V44.547H229.979V3.16699H243.989C254.156 3.16699 260.245 8.19199 260.245 16.767C260.245 23.447 256.52 27.999 250.078 29.653L260.836 44.553L259.358 44.547ZM244.111 29.236C253.805 29.236 259.066 24.685 259.066 16.763C259.066 8.841 253.805 4.28999 244.111 4.28999H231.161V29.236H244.111Z" fill="white"/>
<path d="M266.152 24.034C266.152 12.094 275.252 3.16699 287.374 3.16699C299.496 3.16699 308.596 12.094 308.596 24.034C308.596 35.974 299.496 44.901 287.374 44.901C275.252 44.901 266.152 35.974 266.152 24.034ZM307.413 24.034C307.413 12.744 298.782 4.28999 287.373 4.28999C275.964 4.28999 267.333 12.744 267.333 24.034C267.333 35.324 275.964 43.778 287.373 43.778C298.782 43.778 307.413 35.325 307.413 24.034Z" fill="white"/>
<path d="M319.35 4.29099V24.153H342.168V25.276H319.35V44.547H318.168V3.16699H344.827V4.29099H319.35Z" fill="white"/>
<path d="M353.572 3.16699H354.755V44.547H353.572V3.16699Z" fill="white"/>
<path d="M376.449 4.29099H361.079V3.16699H393.001V4.29099H377.631V44.547H376.449V4.29099Z" fill="white"/>
<path d="M7.8342 65.064H5.4762V71.364H6.1422V69.375H7.8342C9.4362 69.375 10.4082 68.565 10.4082 67.224C10.4082 65.874 9.4362 65.064 7.8342 65.064ZM7.8162 68.79H6.1422V65.64H7.8162C9.0762 65.64 9.7422 66.216 9.7422 67.224C9.7422 68.214 9.0762 68.79 7.8162 68.79ZM16.8793 71.364L15.3403 69.204C16.2583 68.907 16.7803 68.214 16.7803 67.224C16.7803 65.874 15.8083 65.064 14.2063 65.064H11.8483V71.364H12.5143V69.366H14.2063C14.3863 69.366 14.5483 69.357 14.7103 69.339L16.1503 71.364H16.8793ZM14.1883 68.799H12.5143V65.64H14.1883C15.4483 65.64 16.1143 66.216 16.1143 67.224C16.1143 68.214 15.4483 68.799 14.1883 68.799ZM18.3522 71.364H19.0182V65.064H18.3522V71.364ZM25.5607 65.064L23.1307 70.536L20.7187 65.064H19.9987L22.7887 71.364H23.4457L26.2357 65.064H25.5607ZM31.6637 71.364H32.3657L29.4857 65.064H28.8287L25.9487 71.364H26.6417L27.3977 69.681H30.9077L31.6637 71.364ZM27.6407 69.141L29.1527 65.757L30.6647 69.141H27.6407ZM34.3154 71.364H34.9814V65.64H37.1954V65.064H32.1014V65.64H34.3154V71.364ZM38.9254 70.788V68.448H42.1834V67.881H38.9254V65.64H42.5794V65.064H38.2594V71.364H42.7144V70.788H38.9254ZM50.9554 65.64V65.064H46.6354V71.364H47.3014V68.691H50.5594V68.115H47.3014V65.64H50.9554ZM54.8687 71.418C56.4797 71.418 57.4517 70.482 57.4517 68.673V65.064H56.8037V68.646C56.8037 70.14 56.1017 70.824 54.8687 70.824C53.6447 70.824 52.9427 70.14 52.9427 68.646V65.064H52.2767V68.673C52.2767 70.482 53.2577 71.418 54.8687 71.418ZM64.0666 65.064V70.176L60.0076 65.064H59.4586V71.364H60.1246V66.252L64.1746 71.364H64.7236V65.064H64.0666ZM66.7799 71.364H69.3449C71.3609 71.364 72.7199 70.068 72.7199 68.214C72.7199 66.36 71.3609 65.064 69.3449 65.064H66.7799V71.364ZM67.4459 70.788V65.64H69.3089C70.9829 65.64 72.0629 66.702 72.0629 68.214C72.0629 69.726 70.9829 70.788 69.3089 70.788H67.4459ZM76.5709 73.11H77.1649V64.686H76.5709V73.11ZM82.8047 71.364H83.4707V65.64H85.6847V65.064H80.5907V65.64H82.8047V71.364ZM91.1393 71.364H91.8413L88.9613 65.064H88.3043L85.4243 71.364H86.1173L86.8733 69.681H90.3833L91.1393 71.364ZM87.1163 69.141L88.6283 65.757L90.1403 69.141H87.1163ZM97.4104 71.364H98.2024L95.2864 67.917L98.0134 65.064H97.2484L93.5494 68.871V65.064H92.8834V71.364H93.5494V69.708L94.8364 68.403L97.4104 71.364ZM99.9479 70.788V68.448H103.206V67.881H99.9479V65.64H103.602V65.064H99.2819V71.364H103.737V70.788H99.9479ZM110.016 65.064H107.658V71.364H108.324V69.375H110.016C111.618 69.375 112.59 68.565 112.59 67.224C112.59 65.874 111.618 65.064 110.016 65.064ZM109.998 68.79H108.324V65.64H109.998C111.258 65.64 111.924 66.216 111.924 67.224C111.924 68.214 111.258 68.79 109.998 68.79ZM119.061 71.364L117.522 69.204C118.44 68.907 118.962 68.214 118.962 67.224C118.962 65.874 117.99 65.064 116.388 65.064H114.03V71.364H114.696V69.366H116.388C116.568 69.366 116.73 69.357 116.892 69.339L118.332 71.364H119.061ZM116.37 68.799H114.696V65.64H116.37C117.63 65.64 118.296 66.216 118.296 67.224C118.296 68.214 117.63 68.799 116.37 68.799ZM123.288 71.418C125.178 71.418 126.591 70.059 126.591 68.214C126.591 66.369 125.178 65.01 123.288 65.01C121.38 65.01 119.976 66.378 119.976 68.214C119.976 70.05 121.38 71.418 123.288 71.418ZM123.288 70.824C121.767 70.824 120.633 69.717 120.633 68.214C120.633 66.711 121.767 65.604 123.288 65.604C124.8 65.604 125.925 66.711 125.925 68.214C125.925 69.717 124.8 70.824 123.288 70.824ZM132.404 65.64V65.064H128.084V71.364H128.75V68.691H132.008V68.115H128.75V65.64H132.404ZM133.779 71.364H134.445V65.064H133.779V71.364ZM137.719 71.364H138.385V65.64H140.599V65.064H135.505V65.64H137.719V71.364ZM144.288 70.788L148.455 65.523V65.064H143.46V65.64H147.573L143.397 70.905V71.364H148.563V70.788H144.288ZM152.555 71.418C154.445 71.418 155.858 70.059 155.858 68.214C155.858 66.369 154.445 65.01 152.555 65.01C150.647 65.01 149.243 66.378 149.243 68.214C149.243 70.05 150.647 71.418 152.555 71.418ZM152.555 70.824C151.034 70.824 149.9 69.717 149.9 68.214C149.9 66.711 151.034 65.604 152.555 65.604C154.067 65.604 155.192 66.711 155.192 68.214C155.192 69.717 154.067 70.824 152.555 70.824ZM161.959 65.064V70.176L157.9 65.064H157.351V71.364H158.017V66.252L162.067 71.364H162.616V65.064H161.959ZM165.338 70.788V68.448H168.596V67.881H165.338V65.64H168.992V65.064H164.672V71.364H169.127V70.788H165.338ZM173.048 71.364H177.242V70.788H173.714V65.064H173.048V71.364ZM178.348 71.364H182.542V70.788H179.014V65.064H178.348V71.364ZM186.261 71.418C187.188 71.418 188.016 71.103 188.574 70.491L188.151 70.068C187.638 70.599 187.008 70.824 186.288 70.824C184.767 70.824 183.624 69.708 183.624 68.214C183.624 66.72 184.767 65.604 186.288 65.604C187.008 65.604 187.638 65.829 188.151 66.351L188.574 65.928C188.016 65.316 187.188 65.01 186.27 65.01C184.371 65.01 182.967 66.369 182.967 68.214C182.967 70.059 184.371 71.418 186.261 71.418Z" fill="#96999C"/>
</svg>
